{
    "db": {
        "username": "admin",
        "password": "admin",
        "database": "api-warren-ms",
        "servers": [
            "127.0.0.1:27017"
        ],
        "dialect": "mongodb",
        "logging": "",
        "options": {
            "authSource": "admin",
            "replicaSet": ""
        },
        "collections": {
            "user": { "name": "user", "version": "1.0.0" },
            "transaction": { "name": "transaction", "version": "1.0.0" }
        }
    },
    "web": {
        "port": 3000
    },
    "integration": {
    },
    "hateoas": {
        "domain": "https://localhost:3000/"
    },
    "appInsightsKey": "123"
}
