{
    "product": "devsecops",
    "serviceName": "lib-http-mapper",
    "serviceLabel": "Lib to mapper return of http",
    "version": "v1",
    "servicePropertiesPath": "properties",
    "serviceInfraPath": "infra",
    "type": "npci",
    "appPort": "3000",
    "architectureVersion": "1.0"
}